task4/clktick.vcd
$version Generated by VerilatedVcd $end
$timescale 1ps $end

 $scope module TOP $end
  $var wire  1 & clk $end
  $var wire  1 , cmd_delay $end
  $var wire  8 ) data_out [7:0] $end
  $var wire  1 ' rst $end
  $var wire  1 * tick $end
  $var wire  1 + time_out $end
  $var wire  1 ( trigger $end
  $scope module top $end
   $var wire  1 & clk $end
   $var wire  1 , cmd_delay $end
   $var wire  1 - cmd_seq $end
   $var wire  8 ) data_out [7:0] $end
   $var wire  1 . en_temp $end
   $var wire  7 / random_out [6:0] $end
   $var wire  1 ' rst $end
   $var wire  1 * tick $end
   $var wire  1 + time_out $end
   $var wire  1 ( trigger $end
   $scope module clk_divider $end
    $var wire  5 5 N [4:0] $end
    $var wire 32 4 WIDTH [31:0] $end
    $var wire  1 & clk $end
    $var wire  5 # count [4:0] $end
    $var wire  1 - en $end
    $var wire  1 ' rst $end
    $var wire  1 * tick $end
   $upscope $end
   $scope module delay_module $end
    $var wire 32 6 WIDTH [31:0] $end
    $var wire  1 & clk $end
    $var wire  7 $ count [6:0] $end
    $var wire 32 % current_state [31:0] $end
    $var wire  7 / n [6:0] $end
    $var wire 32 0 next_state [31:0] $end
    $var wire  1 ' rst $end
    $var wire  1 + time_out $end
    $var wire  1 , trigger $end
   $upscope $end
   $scope module fsm $end
    $var wire  1 & clk $end
    $var wire  1 , cmd_delay $end
    $var wire  1 - cmd_seq $end
    $var wire 32 2 current_state [31:0] $end
    $var wire  8 ) data_out [7:0] $end
    $var wire  1 . en $end
    $var wire 32 3 next_state [31:0] $end
    $var wire  8 1 out [7:0] $end
    $var wire  1 ' rst $end
    $var wire  1 ( trigger $end
   $upscope $end
   $scope module random_gen $end
    $var wire  7 / K [6:0] $end
    $var wire  1 & clk $end
    $var wire  1 ' rst $end
    $var wire  7 / sreg [6:0] $end
   $upscope $end
  $upscope $end
 $upscope $end
$enddefinitions $end


#0
b00000 #
b0000000 $
b00000000000000000000000000000000 %
1&
0'
0(
b00000000 )
0*
0+
0,
0-
0.
b0000000 /
b00000000000000000000000000000000 0
b00000000 1
b00000000000000000000000000000000 2
b00000000000000000000000000000000 3
b00000000000000000000000000000101 4
b11110 5
b00000000000000000000000000000111 6
#1
0&
1-
#2
b11110 #
b1111111 $
1&
1'
1(
1*
1.
#3
0&
b0000001 /
b00000000000000000000000000000001 3
#4
b0000000 $
1&
0*
0.
#5
0&
#6
1&
0'
#7
0&
#8
b11101 #
1&
b00000001 )
b0000010 /
b00000001 1
b00000000000000000000000000000001 2
#9
0&
#10
b11100 #
b0000001 $
1&
b0000100 /
#11
0&
#12
b11011 #
b0000000 $
1&
b0001001 /
#13
0&
#14
b11010 #
b0001000 $
1&
b0010010 /
#15
0&
#16
b11001 #
b0000111 $
1&
b0100100 /
#17
0&
#18
b11000 #
b0000110 $
1&
b1001001 /
#19
0&
#20
b10111 #
b0000101 $
1&
b0010011 /
#21
0&
#22
b10110 #
b0000100 $
1&
b0100110 /
#23
0&
#24
b10101 #
b0000011 $
1&
b1001101 /
#25
0&
#26
b10100 #
b0000010 $
1&
b0011010 /
#27
0&
#28
b10011 #
b0000001 $
1&
b0110100 /
#29
0&
#30
b10010 #
b0000000 $
1&
b1101001 /
#31
0&
#32
b10001 #
b1101000 $
1&
b1010011 /
#33
0&
#34
b10000 #
b1100111 $
1&
b0100111 /
#35
0&
#36
b01111 #
b1100110 $
1&
b1001111 /
#37
0&
#38
b01110 #
b1100101 $
1&
b0011110 /
#39
0&
#40
b01101 #
b1100100 $
1&
b0111101 /
#41
0&
#42
b01100 #
b1100011 $
1&
b1111011 /
#43
0&
#44
b01011 #
b1100010 $
1&
b1110111 /
#45
0&
#46
b01010 #
b1100001 $
1&
b1101110 /
#47
0&
#48
b01001 #
b1100000 $
1&
b1011100 /
#49
0&
#50
b01000 #
b1011111 $
1&
b0111000 /
#51
0&
#52
b00111 #
b1011110 $
1&
b1110000 /
#53
0&
#54
b00110 #
b1011101 $
1&
b1100001 /
#55
0&
#56
b00101 #
b1011100 $
1&
b1000011 /
#57
0&
#58
b00100 #
b1011011 $
1&
b0000111 /
#59
0&
#60
b00011 #
b1011010 $
1&
b0001111 /
#61
0&
#62
b00010 #
b1011001 $
1&
b0011111 /
#63
0&
#64
b00001 #
b1011000 $
1&
b0111111 /
#65
0&
#66
b00000 #
b1010111 $
1&
b1111111 /
#67
0&
#68
b11110 #
b1010110 $
1&
1*
1.
b1111110 /
b00000000000000000000000000000010 3
#69
0&
#70
b11101 #
b1010101 $
1&
b00000011 )
0*
0.
b1111100 /
b00000011 1
b00000000000000000000000000000010 2
#71
0&
#72
b11100 #
b1010100 $
1&
b1111000 /
#73
0&
#74
b11011 #
b1010011 $
1&
b1110001 /
#75
0&
#76
b11010 #
b1010010 $
1&
b1100011 /
#77
0&
#78
b11001 #
b1010001 $
1&
b1000111 /
#79
0&
#80
b11000 #
b1010000 $
1&
b0001110 /
#81
0&
#82
b10111 #
b1001111 $
1&
b0011101 /
#83
0&
#84
b10110 #
b1001110 $
1&
b0111011 /
#85
0&
#86
b10101 #
b1001101 $
1&
b1110110 /
#87
0&
#88
b10100 #
b1001100 $
1&
b1101100 /
#89
0&
#90
b10011 #
b1001011 $
1&
b1011000 /
#91
0&
#92
b10010 #
b1001010 $
1&
b0110001 /
#93
0&
#94
b10001 #
b1001001 $
1&
b1100010 /
#95
0&
#96
b10000 #
b1001000 $
1&
b1000101 /
#97
0&
#98
b01111 #
b1000111 $
1&
b0001010 /
#99
0&
#100
b01110 #
b1000110 $
1&
b0010100 /
#101
0&
#102
b01101 #
b1000101 $
1&
b0101001 /
#103
0&
#104
b01100 #
b1000100 $
1&
b1010010 /
#105
0&
#106
b01011 #
b1000011 $
1&
b0100101 /
#107
0&
#108
b01010 #
b1000010 $
1&
b1001011 /
#109
0&
#110
b01001 #
b1000001 $
1&
b0010111 /
#111
0&
#112
b01000 #
b1000000 $
1&
b0101111 /
#113
0&
#114
b00111 #
b0111111 $
1&
b1011111 /
#115
0&
#116
b00110 #
b0111110 $
1&
b0111110 /
#117
0&
#118
b00101 #
b0111101 $
1&
b1111101 /
#119
0&
#120
b00100 #
b0111100 $
1&
b1111010 /
#121
0&
#122
b00011 #
b0111011 $
1&
b1110101 /
#123
0&
#124
b00010 #
b0111010 $
1&
b1101010 /
#125
0&
#126
b00001 #
b0111001 $
1&
b1010101 /
#127
0&
#128
b00000 #
b0111000 $
1&
b0101010 /
#129
0&
#130
b11110 #
b0110111 $
1&
1*
1.
b1010100 /
b00000000000000000000000000000011 3
#131
0&
#132
b11101 #
b0110110 $
1&
b00000111 )
0*
0.
b0101000 /
b00000111 1
b00000000000000000000000000000011 2
#133
0&
#134
b11100 #
b0110101 $
1&
b1010000 /
#135
0&
#136
b11011 #
b0110100 $
1&
b0100001 /
#137
0&
#138
b11010 #
b0110011 $
1&
b1000010 /
#139
0&
#140
b11001 #
b0110010 $
1&
b0000101 /
#141
0&
#142
b11000 #
b0110001 $
1&
b0001011 /
#143
0&
#144
b10111 #
b0110000 $
1&
b0010110 /
#145
0&
#146
b10110 #
b0101111 $
1&
b0101101 /
#147
0&
#148
b10101 #
b0101110 $
1&
b1011011 /
#149
0&
#150
b10100 #
b0101101 $
1&
b0110111 /
#151
0&
#152
b10011 #
b0101100 $
1&
b1101111 /
#153
0&
#154
b10010 #
b0101011 $
1&
b1011110 /
#155
0&
#156
b10001 #
b0101010 $
1&
b0111100 /
#157
0&
#158
b10000 #
b0101001 $
1&
b1111001 /
#159
0&
#160
b01111 #
b0101000 $
1&
b1110011 /
#161
0&
#162
b01110 #
b0100111 $
1&
b1100111 /
#163
0&
#164
b01101 #
b0100110 $
1&
b1001110 /
#165
0&
#166
b01100 #
b0100101 $
1&
b0011100 /
#167
0&
#168
b01011 #
b0100100 $
1&
b0111001 /
#169
0&
#170
b01010 #
b0100011 $
1&
b1110010 /
#171
0&
#172
b01001 #
b0100010 $
1&
b1100101 /
#173
0&
#174
b01000 #
b0100001 $
1&
b1001010 /
#175
0&
#176
b00111 #
b0100000 $
1&
b0010101 /
#177
0&
#178
b00110 #
b0011111 $
1&
b0101011 /
#179
0&
#180
b00101 #
b0011110 $
1&
b1010110 /
#181
0&
#182
b00100 #
b0011101 $
1&
b0101100 /
#183
0&
#184
b00011 #
b0011100 $
1&
b1011001 /
#185
0&
#186
b00010 #
b0011011 $
1&
b0110011 /
#187
0&
#188
b00001 #
b0011010 $
1&
b1100110 /
#189
0&
#190
b00000 #
b0011001 $
1&
b1001100 /
#191
0&
#192
b11110 #
b0011000 $
1&
1*
1.
b0011000 /
b00000000000000000000000000000100 3
#193
0&
#194
b11101 #
b0010111 $
1&
b00001111 )
0*
0.
b0110000 /
b00001111 1
b00000000000000000000000000000100 2
#195
0&
#196
b11100 #
b0010110 $
1&
b1100000 /
#197
0&
#198
b11011 #
b0010101 $
1&
b1000001 /
#199
0&
#200
b11010 #
b0010100 $
1&
b0000011 /
#201
0&
#202
b11001 #
b0010011 $
1&
b0000110 /
#203
0&
#204
b11000 #
b0010010 $
1&
b0001101 /
#205
0&
#206
b10111 #
b0010001 $
1&
b0011011 /
#207
0&
#208
b10110 #
b0010000 $
1&
b0110110 /
#209
0&
#210
b10101 #
b0001111 $
1&
b1101101 /
#211
0&
#212
b10100 #
b0001110 $
1&
b1011010 /
#213
0&
#214
b10011 #
b0001101 $
1&
b0110101 /
#215
0&
#216
b10010 #
b0001100 $
1&
b1101011 /
#217
0&
#218
b10001 #
b0001011 $
1&
b1010111 /
#219
0&
#220
b10000 #
b0001010 $
1&
b0101110 /
#221
0&
#222
b01111 #
b0001001 $
1&
b1011101 /
#223
0&
#224
b01110 #
b0001000 $
1&
b0111010 /
#225
0&
#226
b01101 #
b0000111 $
1&
b1110100 /
#227
0&
#228
b01100 #
b0000110 $
1&
b1101000 /
#229
0&
#230
b01011 #
b0000101 $
1&
b1010001 /
#231
0&
#232
b01010 #
b0000100 $
1&
b0100011 /
#233
0&
#234
b01001 #
b0000011 $
1&
b1000110 /
#235
0&
#236
b01000 #
b0000010 $
1&
b0001100 /
#237
0&
#238
b00111 #
b0000001 $
1&
b0011001 /
#239
0&
#240
b00110 #
b0000000 $
1&
b0110010 /
#241
0&
#242
b00101 #
b0110001 $
1&
b1100100 /
#243
0&
#244
b00100 #
b0110000 $
1&
b1001000 /
#245
0&
#246
b00011 #
b0101111 $
1&
b0010001 /
#247
0&
#248
b00010 #
b0101110 $
1&
b0100010 /
#249
0&
#250
b00001 #
b0101101 $
1&
b1000100 /
#251
0&
#252
b00000 #
b0101100 $
1&
b0001000 /
#253
0&
#254
b11110 #
b0101011 $
1&
1*
1.
b0010000 /
b00000000000000000000000000000101 3
#255
0&
#256
b11101 #
b0101010 $
1&
b00011111 )
0*
0.
b0100000 /
b00011111 1
b00000000000000000000000000000101 2
#257
0&
#258
b11100 #
b0101001 $
1&
b1000000 /
#259
0&
#260
b11011 #
b0101000 $
1&
b0000001 /
#261
0&
#262
b11010 #
b0100111 $
1&
b0000010 /
#263
0&
#264
b11001 #
b0100110 $
1&
b0000100 /
#265
0&
#266
b11000 #
b0100101 $
1&
b0001001 /
#267
0&
#268
b10111 #
b0100100 $
1&
b0010010 /
#269
0&
#270
b10110 #
b0100011 $
1&
b0100100 /
#271
0&
#272
b10101 #
b0100010 $
1&
b1001001 /
#273
0&
#274
b10100 #
b0100001 $
1&
b0010011 /
#275
0&
#276
b10011 #
b0100000 $
1&
b0100110 /
#277
0&
#278
b10010 #
b0011111 $
1&
b1001101 /
#279
0&
#280
b10001 #
b0011110 $
1&
b0011010 /
#281
0&
#282
b10000 #
b0011101 $
1&
b0110100 /
#283
0&
#284
b01111 #
b0011100 $
1&
b1101001 /
#285
0&
#286
b01110 #
b0011011 $
1&
b1010011 /
#287
0&
#288
b01101 #
b0011010 $
1&
b0100111 /
#289
0&
#290
b01100 #
b0011001 $
1&
b1001111 /
#291
0&
#292
b01011 #
b0011000 $
1&
b0011110 /
#293
0&
#294
b01010 #
b0010111 $
1&
b0111101 /
#295
0&
#296
b01001 #
b0010110 $
1&
b1111011 /
#297
0&
#298
b01000 #
b0010101 $
1&
b1110111 /
#299
0&
#300
b00111 #
b0010100 $
1&
b1101110 /
#301
0&
#302
b00110 #
b0010011 $
1&
b1011100 /
#303
0&
#304
b00101 #
b0010010 $
1&
b0111000 /
#305
0&
#306
b00100 #
b0010001 $
1&
b1110000 /
#307
0&
#308
b00011 #
b0010000 $
1&
b1100001 /
#309
0&
#310
b00010 #
b0001111 $
1&
b1000011 /
#311
0&
#312
b00001 #
b0001110 $
1&
b0000111 /
#313
0&
#314
b00000 #
b0001101 $
1&
b0001111 /
#315
0&
#316
b11110 #
b0001100 $
1&
1*
1.
b0011111 /
b00000000000000000000000000000110 3
#317
0&
#318
b11101 #
b0001011 $
1&
b00111111 )
0*
0.
b0111111 /
b00111111 1
b00000000000000000000000000000110 2
#319
0&
#320
b11100 #
b0001010 $
1&
b1111111 /
#321
0&
#322
b11011 #
b0001001 $
1&
b1111110 /
#323
0&
#324
b11010 #
b0001000 $
1&
b1111100 /
#325
0&
#326
b11001 #
b0000111 $
1&
b1111000 /
#327
0&
#328
b11000 #
b0000110 $
1&
b1110001 /
#329
0&
#330
b10111 #
b0000101 $
1&
b1100011 /
#331
0&
#332
b10110 #
b0000100 $
1&
b1000111 /
#333
0&
#334
b10101 #
b0000011 $
1&
b0001110 /
#335
0&
#336
b10100 #
b0000010 $
1&
b0011101 /
#337
0&
#338
b10011 #
b0000001 $
1&
b0111011 /
#339
0&
#340
b10010 #
b0000000 $
1&
b1110110 /
#341
0&
#342
b10001 #
b1110101 $
1&
b1101100 /
#343
0&
#344
b10000 #
b1110100 $
1&
b1011000 /
#345
0&
#346
b01111 #
b1110011 $
1&
b0110001 /
#347
0&
#348
b01110 #
b1110010 $
1&
b1100010 /
#349
0&
#350
b01101 #
b1110001 $
1&
b1000101 /
#351
0&
#352
b01100 #
b1110000 $
1&
b0001010 /
#353
0&
#354
b01011 #
b1101111 $
1&
b0010100 /
#355
0&
#356
b01010 #
b1101110 $
1&
b0101001 /
#357
0&
#358
b01001 #
b1101101 $
1&
b1010010 /
#359
0&
#360
b01000 #
b1101100 $
1&
b0100101 /
#361
0&
#362
b00111 #
b1101011 $
1&
b1001011 /
#363
0&
#364
b00110 #
b1101010 $
1&
b0010111 /
#365
0&
#366
b00101 #
b1101001 $
1&
b0101111 /
#367
0&
#368
b00100 #
b1101000 $
1&
b1011111 /
#369
0&
#370
b00011 #
b1100111 $
1&
b0111110 /
#371
0&
#372
b00010 #
b1100110 $
1&
b1111101 /
#373
0&
#374
b00001 #
b1100101 $
1&
b1111010 /
#375
0&
#376
b00000 #
b1100100 $
1&
b1110101 /
#377
0&
#378
b11110 #
b1100011 $
1&
1*
1.
b1101010 /
b00000000000000000000000000000111 3
#379
0&
#380
b11101 #
b1100010 $
1&
b01111111 )
0*
0.
b1010101 /
b01111111 1
b00000000000000000000000000000111 2
#381
0&
#382
b11100 #
b1100001 $
1&
b0101010 /
#383
0&
#384
b11011 #
b1100000 $
1&
b1010100 /
#385
0&
#386
b11010 #
b1011111 $
1&
b0101000 /
#387
0&
#388
b11001 #
b1011110 $
1&
b1010000 /
#389
0&
#390
b11000 #
b1011101 $
1&
b0100001 /
#391
0&
#392
b10111 #
b1011100 $
1&
b1000010 /
#393
0&
#394
b10110 #
b1011011 $
1&
b0000101 /
#395
0&
#396
b10101 #
b1011010 $
1&
b0001011 /
#397
0&
#398
b10100 #
b1011001 $
1&
b0010110 /
#399
0&
#400
b10011 #
b1011000 $
1&
b0101101 /
#401
0&
#402
b10010 #
b1010111 $
1&
b1011011 /
#403
0&
#404
b10001 #
b1010110 $
1&
b0110111 /
#405
0&
#406
b10000 #
b1010101 $
1&
b1101111 /
#407
0&
#408
b01111 #
b1010100 $
1&
b1011110 /
#409
0&
#410
b01110 #
b1010011 $
1&
b0111100 /
#411
0&
#412
b01101 #
b1010010 $
1&
b1111001 /
#413
0&
#414
b01100 #
b1010001 $
1&
b1110011 /
#415
0&
#416
b01011 #
b1010000 $
1&
b1100111 /
#417
0&
#418
b01010 #
b1001111 $
1&
b1001110 /
#419
0&
#420
b01001 #
b1001110 $
1&
b0011100 /
#421
0&
#422
b01000 #
b1001101 $
1&
b0111001 /
#423
0&
#424
b00111 #
b1001100 $
1&
b1110010 /
#425
0&
#426
b00110 #
b1001011 $
1&
b1100101 /
#427
0&
#428
b00101 #
b1001010 $
1&
b1001010 /
#429
0&
#430
b00100 #
b1001001 $
1&
b0010101 /
#431
0&
#432
b00011 #
b1001000 $
1&
b0101011 /
#433
0&
#434
b00010 #
b1000111 $
1&
b1010110 /
#435
0&
#436
b00001 #
b1000110 $
1&
b0101100 /
#437
0&
#438
b00000 #
b1000101 $
1&
b1011001 /
#439
0&
#440
b11110 #
b1000100 $
1&
1*
1.
b0110011 /
b00000000000000000000000000001000 3
#441
0&
#442
b11101 #
b1000011 $
1&
b11111111 )
0*
1,
0-
0.
b1100110 /
b00000000000000000000000000000001 0
b11111111 1
b00000000000000000000000000001000 2
#443
0&
#444
b1100101 $
b00000000000000000000000000000001 %
1&
b1001100 /
#445
0&
#446
b1001011 $
1&
b0011000 /
#447
0&
#448
b0010111 $
1&
b0110000 /
#449
0&
#450
b0101111 $
1&
b1100000 /
#451
0&
#452
b1011111 $
1&
b1000001 /
#453
0&
#454
b1000000 $
1&
b0000011 /
#455
0&
#456
b0000010 $
1&
b0000110 /
#457
0&
#458
b0000101 $
1&
b0001101 /
#459
0&
#460
b0001100 $
1&
b0011011 /
#461
0&
#462
b0011010 $
1&
b0110110 /
#463
0&
#464
b0110101 $
1&
b1101101 /
#465
0&
#466
b1101100 $
1&
b1011010 /
#467
0&
#468
b1011001 $
1&
b0110101 /
#469
0&
#470
b0110100 $
1&
b1101011 /
#471
0&
#472
b1101010 $
1&
b1010111 /
#473
0&
#474
b1010110 $
1&
b0101110 /
#475
0&
#476
b0101101 $
1&
b1011101 /
#477
0&
#478
b1011100 $
1&
b0111010 /
#479
0&
#480
b0111001 $
1&
b1110100 /
#481
0&
#482
b1110011 $
1&
b1101000 /
#483
0&
#484
b1100111 $
1&
b1010001 /
#485
0&
#486
b1010000 $
1&
b0100011 /
#487
0&
#488
b0100010 $
1&
b1000110 /
#489
0&
#490
b1000101 $
1&
b0001100 /
#491
0&
#492
b0001011 $
1&
b0011001 /
#493
0&
#494
b0011000 $
1&
b0110010 /
#495
0&
#496
b0110001 $
1&
b1100100 /
#497
0&
#498
b1100011 $
1&
b1001000 /
#499
0&
#500
b1000111 $
1&
b0010001 /
#501
0&
#502
b0010000 $
1&
b0100010 /
#503
0&
#504
b0100001 $
1&
b1000100 /
#505
0&
#506
b1000011 $
1&
b0001000 /
#507
0&
#508
b0000111 $
1&
b0010000 /
#509
0&
#510
b0001111 $
1&
b0100000 /
#511
0&
#512
b0011111 $
1&
b1000000 /
#513
0&
#514
b0111111 $
1&
b0000001 /
#515
0&
#516
b0000000 $
1&
b0000010 /
b00000000000000000000000000000010 0
#517
0&
#518
b0000001 $
b00000000000000000000000000000010 %
1&
1+
1.
b0000100 /
b00000000000000000000000000000011 0
b00000000000000000000000000000000 3
#519
0&
#520
b0000011 $
b00000000000000000000000000000011 %
1&
b00000000 )
0+
0,
1-
0.
b0001001 /
b00000000000000000000000000000000 0
b00000000 1
b00000000000000000000000000000000 2
#521
0&
#522
b11100 #
b0000010 $
b00000000000000000000000000000000 %
1&
b0010010 /
#523
0&
#524
b11011 #
b0000001 $
1&
b0100100 /
#525
0&
#526
b11010 #
b0000000 $
1&
b1001001 /
#527
0&
#528
b11001 #
b1001000 $
1&
b0010011 /
#529
0&
#530
b11000 #
b1000111 $
1&
b0100110 /
#531
0&
#532
b10111 #
b1000110 $
1&
b1001101 /
#533
0&
#534
b10110 #
b1000101 $
1&
b0011010 /
#535
0&
#536
b10101 #
b1000100 $
1&
b0110100 /
#537
0&
#538
b10100 #
b1000011 $
1&
b1101001 /
#539
0&
#540
b10011 #
b1000010 $
1&
b1010011 /
#541
0&
#542
b10010 #
b1000001 $
1&
b0100111 /
#543
0&
#544
b10001 #
b1000000 $
1&
0(
b1001111 /
#545
0&
#546
b10000 #
b0111111 $
1&
b0011110 /
#547
0&
#548
b01111 #
b0111110 $
1&
b0111101 /
#549
0&
#550
b01110 #
b0111101 $
1&
b1111011 /
#551
0&
#552
b01101 #
b0111100 $
1&
b1110111 /
#553
0&
#554
b01100 #
b0111011 $
1&
b1101110 /
#555
0&
#556
b01011 #
b0111010 $
1&
b1011100 /
#557
0&
#558
b01010 #
b0111001 $
1&
b0111000 /
#559
0&
#560
b01001 #
b0111000 $
1&
b1110000 /
#561
0&
#562
b01000 #
b0110111 $
1&
b1100001 /
#563
0&
#564
b00111 #
b0110110 $
1&
b1000011 /
#565
0&
#566
b00110 #
b0110101 $
1&
b0000111 /
#567
0&
#568
b00101 #
b0110100 $
1&
b0001111 /
#569
0&
#570
b00100 #
b0110011 $
1&
b0011111 /
#571
0&
#572
b00011 #
b0110010 $
1&
b0111111 /
#573
0&
#574
b00010 #
b0110001 $
1&
b1111111 /
#575
0&
#576
b00001 #
b0110000 $
1&
b1111110 /
#577
0&
#578
b00000 #
b0101111 $
1&
b1111100 /
#579
0&
#580
b11110 #
b0101110 $
1&
1*
1.
b1111000 /
#581
0&
#582
b11101 #
b0101101 $
1&
0*
0.
b1110001 /
#583
0&
#584
b11100 #
b0101100 $
1&
b1100011 /
#585
0&
#586
b11011 #
b0101011 $
1&
b1000111 /
#587
0&
#588
b11010 #
b0101010 $
1&
b0001110 /
#589
0&
#590
b11001 #
b0101001 $
1&
b0011101 /
#591
0&
#592
b11000 #
b0101000 $
1&
b0111011 /
#593
0&
#594
b10111 #
b0100111 $
1&
b1110110 /
#595
0&
#596
b10110 #
b0100110 $
1&
b1101100 /
#597
0&
#598
b10101 #
b0100101 $
1&
b1011000 /
#599
0&
#600
b10100 #
b0100100 $
1&
b0110001 /
#601
0&
#602
b10011 #
b0100011 $
1&
b1100010 /
#603
0&
#604
b10010 #
b0100010 $
1&
b1000101 /
#605
0&
#606
b10001 #
b0100001 $
1&
b0001010 /
#607
0&
#608
b10000 #
b0100000 $
1&
b0010100 /
#609
0&
#610
b01111 #
b0011111 $
1&
b0101001 /
#611
0&
#612
b01110 #
b0011110 $
1&
b1010010 /
#613
0&
#614
b01101 #
b0011101 $
1&
b0100101 /
#615
0&
#616
b01100 #
b0011100 $
1&
b1001011 /
#617
0&
#618
b01011 #
b0011011 $
1&
b0010111 /
#619
0&
#620
b01010 #
b0011010 $
1&
b0101111 /
#621
0&
#622
b01001 #
b0011001 $
1&
b1011111 /
#623
0&
#624
b01000 #
b0011000 $
1&
b0111110 /
#625
0&
#626
b00111 #
b0010111 $
1&
b1111101 /
#627
0&
#628
b00110 #
b0010110 $
1&
b1111010 /
#629
0&
#630
b00101 #
b0010101 $
1&
b1110101 /
#631
0&
#632
b00100 #
b0010100 $
1&
b1101010 /
#633
0&
#634
b00011 #
b0010011 $
1&
b1010101 /
#635
0&
#636
b00010 #
b0010010 $
1&
b0101010 /
#637
0&
#638
b00001 #
b0010001 $
1&
b1010100 /
#639
0&
#640
b00000 #
b0010000 $
1&
b0101000 /
#641
0&
#642
b11110 #
b0001111 $
1&
1*
1.
b1010000 /
#643
0&
#644
b11101 #
b0001110 $
1&
0*
0.
b0100001 /
#645
0&
#646
b11100 #
b0001101 $
1&
b1000010 /
#647
0&
#648
b11011 #
b0001100 $
1&
b0000101 /
#649
0&
#650
b11010 #
b0001011 $
1&
b0001011 /
#651
0&
#652
b11001 #
b0001010 $
1&
b0010110 /
#653
0&
#654
b11000 #
b0001001 $
1&
b0101101 /
#655
0&
#656
b10111 #
b0001000 $
1&
b1011011 /
#657
0&
#658
b10110 #
b0000111 $
1&
b0110111 /
#659
0&
#660
b10101 #
b0000110 $
1&
b1101111 /
#661
0&
#662
b10100 #
b0000101 $
1&
b1011110 /
#663
0&
#664
b10011 #
b0000100 $
1&
b0111100 /
#665
0&
#666
b10010 #
b0000011 $
1&
b1111001 /
#667
0&
#668
b10001 #
b0000010 $
1&
b1110011 /
#669
0&
#670
b10000 #
b0000001 $
1&
b1100111 /
#671
0&
#672
b01111 #
b0000000 $
1&
b1001110 /
#673
0&
#674
b01110 #
b1001101 $
1&
b0011100 /
#675
0&
#676
b01101 #
b1001100 $
1&
b0111001 /
#677
0&
#678
b01100 #
b1001011 $
1&
b1110010 /
#679
0&
#680
b01011 #
b1001010 $
1&
b1100101 /
#681
0&
#682
b01010 #
b1001001 $
1&
b1001010 /
#683
0&
#684
b01001 #
b1001000 $
1&
b0010101 /
#685
0&
#686
b01000 #
b1000111 $
1&
b0101011 /
#687
0&
#688
b00111 #
b1000110 $
1&
b1010110 /
#689
0&
#690
b00110 #
b1000101 $
1&
b0101100 /
#691
0&
#692
b00101 #
b1000100 $
1&
b1011001 /
#693
0&
#694
b00100 #
b1000011 $
1&
b0110011 /
#695
0&
#696
b00011 #
b1000010 $
1&
b1100110 /
#697
0&
#698
b00010 #
b1000001 $
1&
b1001100 /
#699
0&
#700
b00001 #
b1000000 $
1&
b0011000 /
#701
0&
#702
b00000 #
b0111111 $
1&
b0110000 /
#703
0&
#704
b11110 #
b0111110 $
1&
1*
1.
b1100000 /
#705
0&
#706
b11101 #
b0111101 $
1&
0*
0.
b1000001 /
#707
0&
#708
b11100 #
b0111100 $
1&
b0000011 /
#709
0&
#710
b11011 #
b0111011 $
1&
b0000110 /
#711
0&
#712
b11010 #
b0111010 $
1&
b0001101 /
#713
0&
#714
b11001 #
b0111001 $
1&
b0011011 /
#715
0&
#716
b11000 #
b0111000 $
1&
b0110110 /
#717
0&
#718
b10111 #
b0110111 $
1&
b1101101 /
#719
0&
#720
b10110 #
b0110110 $
1&
b1011010 /
#721
0&
#722
b10101 #
b0110101 $
1&
b0110101 /
#723
0&
#724
b10100 #
b0110100 $
1&
b1101011 /
#725
0&
#726
b10011 #
b0110011 $
1&
b1010111 /
#727
0&
#728
b10010 #
b0110010 $
1&
b0101110 /
#729
0&
#730
b10001 #
b0110001 $
1&
b1011101 /
#731
0&
#732
b10000 #
b0110000 $
1&
b0111010 /
#733
0&
#734
b01111 #
b0101111 $
1&
b1110100 /
#735
0&
#736
b01110 #
b0101110 $
1&
b1101000 /
#737
0&
#738
b01101 #
b0101101 $
1&
b1010001 /
#739
0&
#740
b01100 #
b0101100 $
1&
b0100011 /
#741
0&
#742
b01011 #
b0101011 $
1&
b1000110 /
#743
0&
#744
b01010 #
b0101010 $
1&
b0001100 /
#745
0&
#746
b01001 #
b0101001 $
1&
b0011001 /
#747
0&
#748
b01000 #
b0101000 $
1&
b0110010 /
#749
0&
#750
b00111 #
b0100111 $
1&
b1100100 /
#751
0&
#752
b00110 #
b0100110 $
1&
b1001000 /
#753
0&
#754
b00101 #
b0100101 $
1&
b0010001 /
#755
0&
#756
b00100 #
b0100100 $
1&
b0100010 /
#757
0&
#758
b00011 #
b0100011 $
1&
b1000100 /
#759
0&
#760
b00010 #
b0100010 $
1&
b0001000 /
#761
0&
#762
b00001 #
b0100001 $
1&
b0010000 /
#763
0&
#764
b00000 #
b0100000 $
1&
b0100000 /
#765
0&
#766
b11110 #
b0011111 $
1&
1*
1.
b1000000 /
#767
0&
#768
b11101 #
b0011110 $
1&
0*
0.
b0000001 /
#769
0&
#770
b11100 #
b0011101 $
1&
b0000010 /
#771
0&
#772
b11011 #
b0011100 $
1&
b0000100 /
#773
0&
#774
b11010 #
b0011011 $
1&
b0001001 /
#775
0&
#776
b11001 #
b0011010 $
1&
b0010010 /
#777
0&
#778
b11000 #
b0011001 $
1&
b0100100 /
#779
0&
#780
b10111 #
b0011000 $
1&
b1001001 /
#781
0&
#782
b10110 #
b0010111 $
1&
b0010011 /
#783
0&
#784
b10101 #
b0010110 $
1&
b0100110 /
#785
0&
#786
b10100 #
b0010101 $
1&
b1001101 /
#787
0&
#788
b10011 #
b0010100 $
1&
b0011010 /
#789
0&
#790
b10010 #
b0010011 $
1&
b0110100 /
#791
0&
#792
b10001 #
b0010010 $
1&
b1101001 /
#793
0&
#794
b10000 #
b0010001 $
1&
b1010011 /
#795
0&
#796
b01111 #
b0010000 $
1&
b0100111 /
#797
0&
#798
b01110 #
b0001111 $
1&
b1001111 /
#799
0&
#800
b01101 #
b0001110 $
1&
b0011110 /
#801
0&
#802
b01100 #
b0001101 $
1&
b0111101 /
#803
0&
#804
b01011 #
b0001100 $
1&
b1111011 /
#805
0&
#806
b01010 #
b0001011 $
1&
b1110111 /
#807
0&
#808
b01001 #
b0001010 $
1&
b1101110 /
#809
0&
#810
b01000 #
b0001001 $
1&
b1011100 /
#811
0&
#812
b00111 #
b0001000 $
1&
b0111000 /
#813
0&
#814
b00110 #
b0000111 $
1&
b1110000 /
#815
0&
#816
b00101 #
b0000110 $
1&
b1100001 /
#817
0&
#818
b00100 #
b0000101 $
1&
b1000011 /
#819
0&
#820
b00011 #
b0000100 $
1&
b0000111 /
#821
0&
#822
b00010 #
b0000011 $
1&
b0001111 /
#823
0&
#824
b00001 #
b0000010 $
1&
b0011111 /
#825
0&
#826
b00000 #
b0000001 $
1&
b0111111 /
#827
0&
#828
b11110 #
b0000000 $
1&
1*
1.
b1111111 /
#829
0&
#830
b11101 #
b1111110 $
1&
0*
0.
b1111110 /
#831
0&
#832
b11100 #
b1111101 $
1&
b1111100 /
#833
0&
#834
b11011 #
b1111100 $
1&
b1111000 /
#835
0&
#836
b11010 #
b1111011 $
1&
b1110001 /
#837
0&
#838
b11001 #
b1111010 $
1&
b1100011 /
#839
0&
#840
b11000 #
b1111001 $
1&
b1000111 /
